<?xml version="1.0" encoding="UTF-8" standalone="no"?>
<!-- Created with Inkscape (http://www.inkscape.org/) -->

<svg
   xmlns:osb="http://www.openswatchbook.org/uri/2009/osb"
   xmlns:dc="http://purl.org/dc/elements/1.1/"
   xmlns:cc="http://creativecommons.org/ns#"
   xmlns:rdf="http://www.w3.org/1999/02/22-rdf-syntax-ns#"
   xmlns:svg="http://www.w3.org/2000/svg"
   xmlns="http://www.w3.org/2000/svg"
   xmlns:xlink="http://www.w3.org/1999/xlink"
   xmlns:sodipodi="http://sodipodi.sourceforge.net/DTD/sodipodi-0.dtd"
   xmlns:inkscape="http://www.inkscape.org/namespaces/inkscape"
   width="372.77481"
   height="415.20715"
   id="svg2"
   version="1.1"
   inkscape:version="0.48.5 r10040"
   sodipodi:docname="staggered.svg"
   inkscape:export-filename="/home/boo/random_stuff/roguelike/pit_of_hate/cxx/sugrsonic/staggered.png"
   inkscape:export-xdpi="90"
   inkscape:export-ydpi="90">
  <defs
     id="defs4">
    <linearGradient
       inkscape:collect="always"
       id="linearGradient4447">
      <stop
         style="stop-color:#808080;stop-opacity:1;"
         offset="0"
         id="stop4449" />
      <stop
         style="stop-color:#808080;stop-opacity:0;"
         offset="1"
         id="stop4451" />
    </linearGradient>
    <marker
       inkscape:stockid="Arrow1Lstart"
       orient="auto"
       refY="0"
       refX="0"
       id="Arrow1Lstart"
       style="overflow:visible">
      <path
         id="path5424"
         d="M 0,0 5,-5 -12.5,0 5,5 0,0 z"
         style="fill-rule:evenodd;stroke:#000000;stroke-width:1pt"
         transform="matrix(0.8,0,0,0.8,10,0)"
         inkscape:connector-curvature="0" />
    </marker>
    <marker
       inkscape:stockid="Arrow1Lend"
       orient="auto"
       refY="0"
       refX="0"
       id="Arrow1Lend"
       style="overflow:visible">
      <path
         id="path5427"
         d="M 0,0 5,-5 -12.5,0 5,5 0,0 z"
         style="fill-rule:evenodd;stroke:#000000;stroke-width:1pt"
         transform="matrix(-0.8,0,0,-0.8,-10,0)"
         inkscape:connector-curvature="0" />
    </marker>
    <linearGradient
       id="linearGradient5382"
       osb:paint="solid">
      <stop
         style="stop-color:#000000;stop-opacity:1;"
         offset="0"
         id="stop5384" />
    </linearGradient>
    <marker
       inkscape:stockid="Arrow1Lend"
       orient="auto"
       refY="0"
       refX="0"
       id="Arrow1Lend-7"
       style="overflow:visible">
      <path
         inkscape:connector-curvature="0"
         id="path5427-7"
         d="M 0,0 5,-5 -12.5,0 5,5 0,0 z"
         style="fill-rule:evenodd;stroke:#000000;stroke-width:1pt"
         transform="matrix(-0.8,0,0,-0.8,-10,0)" />
    </marker>
    <marker
       inkscape:stockid="Arrow1Lend"
       orient="auto"
       refY="0"
       refX="0"
       id="Arrow1Lend-7-1"
       style="overflow:visible">
      <path
         inkscape:connector-curvature="0"
         id="path5427-7-1"
         d="M 0,0 5,-5 -12.5,0 5,5 0,0 z"
         style="fill-rule:evenodd;stroke:#000000;stroke-width:1pt"
         transform="matrix(-0.8,0,0,-0.8,-10,0)" />
    </marker>
    <marker
       inkscape:stockid="Arrow1Lend"
       orient="auto"
       refY="0"
       refX="0"
       id="Arrow1Lend-7-1-6"
       style="overflow:visible">
      <path
         inkscape:connector-curvature="0"
         id="path5427-7-1-4"
         d="M 0,0 5,-5 -12.5,0 5,5 0,0 z"
         style="fill-rule:evenodd;stroke:#000000;stroke-width:1pt"
         transform="matrix(-0.8,0,0,-0.8,-10,0)" />
    </marker>
    <marker
       inkscape:stockid="Arrow1Lend"
       orient="auto"
       refY="0"
       refX="0"
       id="Arrow1Lend-7-5"
       style="overflow:visible">
      <path
         inkscape:connector-curvature="0"
         id="path5427-7-3"
         d="M 0,0 5,-5 -12.5,0 5,5 0,0 z"
         style="fill-rule:evenodd;stroke:#000000;stroke-width:1pt"
         transform="matrix(-0.8,0,0,-0.8,-10,0)" />
    </marker>
    <marker
       inkscape:stockid="Arrow1Lend"
       orient="auto"
       refY="0"
       refX="0"
       id="Arrow1Lend-7-2"
       style="overflow:visible">
      <path
         inkscape:connector-curvature="0"
         id="path5427-7-4"
         d="M 0,0 5,-5 -12.5,0 5,5 0,0 z"
         style="fill-rule:evenodd;stroke:#000000;stroke-width:1pt"
         transform="matrix(-0.8,0,0,-0.8,-10,0)" />
    </marker>
    <marker
       inkscape:stockid="Arrow1Lend"
       orient="auto"
       refY="0"
       refX="0"
       id="Arrow1Lend-7-1-7"
       style="overflow:visible">
      <path
         inkscape:connector-curvature="0"
         id="path5427-7-1-9"
         d="M 0,0 5,-5 -12.5,0 5,5 0,0 z"
         style="fill-rule:evenodd;stroke:#000000;stroke-width:1pt"
         transform="matrix(-0.8,0,0,-0.8,-10,0)" />
    </marker>
    <marker
       inkscape:stockid="Arrow1Lend"
       orient="auto"
       refY="0"
       refX="0"
       id="Arrow1Lend-7-1-0"
       style="overflow:visible">
      <path
         inkscape:connector-curvature="0"
         id="path5427-7-1-6"
         d="M 0,0 5,-5 -12.5,0 5,5 0,0 z"
         style="fill-rule:evenodd;stroke:#000000;stroke-width:1pt"
         transform="matrix(-0.8,0,0,-0.8,-10,0)" />
    </marker>
    <radialGradient
       inkscape:collect="always"
       xlink:href="#linearGradient4447"
       id="radialGradient4453"
       cx="57.5"
       cy="37.275898"
       fx="57.5"
       fy="37.275898"
       r="8.7142859"
       gradientUnits="userSpaceOnUse" />
    <radialGradient
       inkscape:collect="always"
       xlink:href="#linearGradient4447-2"
       id="radialGradient4453-2"
       cx="57.5"
       cy="37.275898"
       fx="57.5"
       fy="37.275898"
       r="8.7142859"
       gradientUnits="userSpaceOnUse" />
    <linearGradient
       inkscape:collect="always"
       id="linearGradient4447-2">
      <stop
         style="stop-color:#808080;stop-opacity:1;"
         offset="0"
         id="stop4449-0" />
      <stop
         style="stop-color:#808080;stop-opacity:0;"
         offset="1"
         id="stop4451-9" />
    </linearGradient>
    <radialGradient
       r="8.7142859"
       fy="37.275898"
       fx="57.5"
       cy="37.275898"
       cx="57.5"
       gradientUnits="userSpaceOnUse"
       id="radialGradient4470"
       xlink:href="#linearGradient4447-2"
       inkscape:collect="always" />
    <radialGradient
       inkscape:collect="always"
       xlink:href="#linearGradient4447-6"
       id="radialGradient4453-8"
       cx="57.5"
       cy="37.275898"
       fx="57.5"
       fy="37.275898"
       r="8.7142859"
       gradientUnits="userSpaceOnUse" />
    <linearGradient
       inkscape:collect="always"
       id="linearGradient4447-6">
      <stop
         style="stop-color:#808080;stop-opacity:1;"
         offset="0"
         id="stop4449-6" />
      <stop
         style="stop-color:#808080;stop-opacity:0;"
         offset="1"
         id="stop4451-5" />
    </linearGradient>
    <radialGradient
       r="8.7142859"
       fy="37.275898"
       fx="57.5"
       cy="37.275898"
       cx="57.5"
       gradientUnits="userSpaceOnUse"
       id="radialGradient4470-3"
       xlink:href="#linearGradient4447-6"
       inkscape:collect="always" />
    <radialGradient
       inkscape:collect="always"
       xlink:href="#linearGradient4447-3"
       id="radialGradient4453-4"
       cx="57.5"
       cy="37.275898"
       fx="57.5"
       fy="37.275898"
       r="8.7142859"
       gradientUnits="userSpaceOnUse" />
    <linearGradient
       inkscape:collect="always"
       id="linearGradient4447-3">
      <stop
         style="stop-color:#808080;stop-opacity:1;"
         offset="0"
         id="stop4449-4" />
      <stop
         style="stop-color:#808080;stop-opacity:0;"
         offset="1"
         id="stop4451-8" />
    </linearGradient>
    <radialGradient
       r="8.7142859"
       fy="37.275898"
       fx="57.5"
       cy="37.275898"
       cx="57.5"
       gradientUnits="userSpaceOnUse"
       id="radialGradient4470-5"
       xlink:href="#linearGradient4447-3"
       inkscape:collect="always" />
    <radialGradient
       inkscape:collect="always"
       xlink:href="#linearGradient4447-21"
       id="radialGradient4453-1"
       cx="57.5"
       cy="37.275898"
       fx="57.5"
       fy="37.275898"
       r="8.7142859"
       gradientUnits="userSpaceOnUse" />
    <linearGradient
       inkscape:collect="always"
       id="linearGradient4447-21">
      <stop
         style="stop-color:#808080;stop-opacity:1;"
         offset="0"
         id="stop4449-3" />
      <stop
         style="stop-color:#808080;stop-opacity:0;"
         offset="1"
         id="stop4451-4" />
    </linearGradient>
    <radialGradient
       r="8.7142859"
       fy="37.275898"
       fx="57.5"
       cy="37.275898"
       cx="57.5"
       gradientUnits="userSpaceOnUse"
       id="radialGradient4571"
       xlink:href="#linearGradient4447-21"
       inkscape:collect="always" />
    <radialGradient
       inkscape:collect="always"
       xlink:href="#linearGradient4447-67"
       id="radialGradient4453-3"
       cx="57.5"
       cy="37.275898"
       fx="57.5"
       fy="37.275898"
       r="8.7142859"
       gradientUnits="userSpaceOnUse" />
    <linearGradient
       inkscape:collect="always"
       id="linearGradient4447-67">
      <stop
         style="stop-color:#808080;stop-opacity:1;"
         offset="0"
         id="stop4449-63" />
      <stop
         style="stop-color:#808080;stop-opacity:0;"
         offset="1"
         id="stop4451-2" />
    </linearGradient>
    <radialGradient
       r="8.7142859"
       fy="37.275898"
       fx="57.5"
       cy="37.275898"
       cx="57.5"
       gradientUnits="userSpaceOnUse"
       id="radialGradient4571-8"
       xlink:href="#linearGradient4447-67"
       inkscape:collect="always" />
    <radialGradient
       inkscape:collect="always"
       xlink:href="#linearGradient4447-22"
       id="radialGradient4453-7"
       cx="57.5"
       cy="37.275898"
       fx="57.5"
       fy="37.275898"
       r="8.7142859"
       gradientUnits="userSpaceOnUse" />
    <linearGradient
       inkscape:collect="always"
       id="linearGradient4447-22">
      <stop
         style="stop-color:#808080;stop-opacity:1;"
         offset="0"
         id="stop4449-60" />
      <stop
         style="stop-color:#808080;stop-opacity:0;"
         offset="1"
         id="stop4451-7" />
    </linearGradient>
    <radialGradient
       r="8.7142859"
       fy="37.275898"
       fx="57.5"
       cy="37.275898"
       cx="57.5"
       gradientUnits="userSpaceOnUse"
       id="radialGradient4571-9"
       xlink:href="#linearGradient4447-22"
       inkscape:collect="always" />
    <radialGradient
       inkscape:collect="always"
       xlink:href="#linearGradient4447-4"
       id="radialGradient4453-6"
       cx="57.5"
       cy="37.275898"
       fx="57.5"
       fy="37.275898"
       r="8.7142859"
       gradientUnits="userSpaceOnUse" />
    <linearGradient
       inkscape:collect="always"
       id="linearGradient4447-4">
      <stop
         style="stop-color:#808080;stop-opacity:1;"
         offset="0"
         id="stop4449-1" />
      <stop
         style="stop-color:#808080;stop-opacity:0;"
         offset="1"
         id="stop4451-24" />
    </linearGradient>
    <radialGradient
       r="8.7142859"
       fy="37.275898"
       fx="57.5"
       cy="37.275898"
       cx="57.5"
       gradientUnits="userSpaceOnUse"
       id="radialGradient4571-6"
       xlink:href="#linearGradient4447-4"
       inkscape:collect="always" />
    <radialGradient
       inkscape:collect="always"
       xlink:href="#linearGradient4447-1"
       id="radialGradient4453-68"
       cx="57.5"
       cy="37.275898"
       fx="57.5"
       fy="37.275898"
       r="8.7142859"
       gradientUnits="userSpaceOnUse" />
    <linearGradient
       inkscape:collect="always"
       id="linearGradient4447-1">
      <stop
         style="stop-color:#808080;stop-opacity:1;"
         offset="0"
         id="stop4449-14" />
      <stop
         style="stop-color:#808080;stop-opacity:0;"
         offset="1"
         id="stop4451-87" />
    </linearGradient>
    <radialGradient
       r="8.7142859"
       fy="37.275898"
       fx="57.5"
       cy="37.275898"
       cx="57.5"
       gradientUnits="userSpaceOnUse"
       id="radialGradient4571-85"
       xlink:href="#linearGradient4447-1"
       inkscape:collect="always" />
    <radialGradient
       inkscape:collect="always"
       xlink:href="#linearGradient4447-8"
       id="radialGradient4453-60"
       cx="57.5"
       cy="37.275898"
       fx="57.5"
       fy="37.275898"
       r="8.7142859"
       gradientUnits="userSpaceOnUse" />
    <linearGradient
       inkscape:collect="always"
       id="linearGradient4447-8">
      <stop
         style="stop-color:#808080;stop-opacity:1;"
         offset="0"
         id="stop4449-45" />
      <stop
         style="stop-color:#808080;stop-opacity:0;"
         offset="1"
         id="stop4451-1" />
    </linearGradient>
    <radialGradient
       r="8.7142859"
       fy="37.275898"
       fx="57.5"
       cy="37.275898"
       cx="57.5"
       gradientUnits="userSpaceOnUse"
       id="radialGradient4571-4"
       xlink:href="#linearGradient4447-8"
       inkscape:collect="always" />
    <radialGradient
       inkscape:collect="always"
       xlink:href="#linearGradient4447-13"
       id="radialGradient4453-30"
       cx="57.5"
       cy="37.275898"
       fx="57.5"
       fy="37.275898"
       r="8.7142859"
       gradientUnits="userSpaceOnUse" />
    <linearGradient
       inkscape:collect="always"
       id="linearGradient4447-13">
      <stop
         style="stop-color:#808080;stop-opacity:1;"
         offset="0"
         id="stop4449-19" />
      <stop
         style="stop-color:#808080;stop-opacity:0;"
         offset="1"
         id="stop4451-17" />
    </linearGradient>
    <radialGradient
       r="8.7142859"
       fy="37.275898"
       fx="57.5"
       cy="37.275898"
       cx="57.5"
       gradientUnits="userSpaceOnUse"
       id="radialGradient4571-1"
       xlink:href="#linearGradient4447-13"
       inkscape:collect="always" />
    <radialGradient
       inkscape:collect="always"
       xlink:href="#linearGradient4447-88"
       id="radialGradient4453-70"
       cx="57.5"
       cy="37.275898"
       fx="57.5"
       fy="37.275898"
       r="8.7142859"
       gradientUnits="userSpaceOnUse" />
    <linearGradient
       inkscape:collect="always"
       id="linearGradient4447-88">
      <stop
         style="stop-color:#808080;stop-opacity:1;"
         offset="0"
         id="stop4449-147" />
      <stop
         style="stop-color:#808080;stop-opacity:0;"
         offset="1"
         id="stop4451-0" />
    </linearGradient>
    <radialGradient
       r="8.7142859"
       fy="37.275898"
       fx="57.5"
       cy="37.275898"
       cx="57.5"
       gradientUnits="userSpaceOnUse"
       id="radialGradient4571-2"
       xlink:href="#linearGradient4447-88"
       inkscape:collect="always" />
    <radialGradient
       inkscape:collect="always"
       xlink:href="#linearGradient4447-5"
       id="radialGradient4453-84"
       cx="57.5"
       cy="37.275898"
       fx="57.5"
       fy="37.275898"
       r="8.7142859"
       gradientUnits="userSpaceOnUse" />
    <linearGradient
       inkscape:collect="always"
       id="linearGradient4447-5">
      <stop
         style="stop-color:#808080;stop-opacity:1;"
         offset="0"
         id="stop4449-5" />
      <stop
         style="stop-color:#808080;stop-opacity:0;"
         offset="1"
         id="stop4451-16" />
    </linearGradient>
    <radialGradient
       r="8.7142859"
       fy="37.275898"
       fx="57.5"
       cy="37.275898"
       cx="57.5"
       gradientUnits="userSpaceOnUse"
       id="radialGradient4571-93"
       xlink:href="#linearGradient4447-5"
       inkscape:collect="always" />
    <radialGradient
       inkscape:collect="always"
       xlink:href="#linearGradient4447-52"
       id="radialGradient4453-16"
       cx="57.5"
       cy="37.275898"
       fx="57.5"
       fy="37.275898"
       r="8.7142859"
       gradientUnits="userSpaceOnUse" />
    <linearGradient
       inkscape:collect="always"
       id="linearGradient4447-52">
      <stop
         style="stop-color:#808080;stop-opacity:1;"
         offset="0"
         id="stop4449-68" />
      <stop
         style="stop-color:#808080;stop-opacity:0;"
         offset="1"
         id="stop4451-29" />
    </linearGradient>
    <radialGradient
       r="8.7142859"
       fy="37.275898"
       fx="57.5"
       cy="37.275898"
       cx="57.5"
       gradientUnits="userSpaceOnUse"
       id="radialGradient4571-3"
       xlink:href="#linearGradient4447-52"
       inkscape:collect="always" />
    <radialGradient
       inkscape:collect="always"
       xlink:href="#linearGradient4447-81"
       id="radialGradient4453-14"
       cx="57.5"
       cy="37.275898"
       fx="57.5"
       fy="37.275898"
       r="8.7142859"
       gradientUnits="userSpaceOnUse" />
    <linearGradient
       inkscape:collect="always"
       id="linearGradient4447-81">
      <stop
         style="stop-color:#808080;stop-opacity:1;"
         offset="0"
         id="stop4449-7" />
      <stop
         style="stop-color:#808080;stop-opacity:0;"
         offset="1"
         id="stop4451-3" />
    </linearGradient>
    <radialGradient
       r="8.7142859"
       fy="37.275898"
       fx="57.5"
       cy="37.275898"
       cx="57.5"
       gradientUnits="userSpaceOnUse"
       id="radialGradient4571-0"
       xlink:href="#linearGradient4447-81"
       inkscape:collect="always" />
    <radialGradient
       inkscape:collect="always"
       xlink:href="#linearGradient4447-48"
       id="radialGradient4453-76"
       cx="57.5"
       cy="37.275898"
       fx="57.5"
       fy="37.275898"
       r="8.7142859"
       gradientUnits="userSpaceOnUse" />
    <linearGradient
       inkscape:collect="always"
       id="linearGradient4447-48">
      <stop
         style="stop-color:#808080;stop-opacity:1;"
         offset="0"
         id="stop4449-00" />
      <stop
         style="stop-color:#808080;stop-opacity:0;"
         offset="1"
         id="stop4451-54" />
    </linearGradient>
    <radialGradient
       r="8.7142859"
       fy="37.275898"
       fx="57.5"
       cy="37.275898"
       cx="57.5"
       gradientUnits="userSpaceOnUse"
       id="radialGradient4571-66"
       xlink:href="#linearGradient4447-48"
       inkscape:collect="always" />
    <marker
       inkscape:stockid="Arrow1Lend"
       orient="auto"
       refY="0"
       refX="0"
       id="Arrow1Lend-7-11"
       style="overflow:visible">
      <path
         inkscape:connector-curvature="0"
         id="path5427-7-35"
         d="M 0,0 5,-5 -12.5,0 5,5 0,0 z"
         style="fill-rule:evenodd;stroke:#000000;stroke-width:1pt"
         transform="matrix(-0.8,0,0,-0.8,-10,0)" />
    </marker>
    <marker
       inkscape:stockid="Arrow1Lend"
       orient="auto"
       refY="0"
       refX="0"
       id="Arrow1Lend-7-11-9"
       style="overflow:visible">
      <path
         inkscape:connector-curvature="0"
         id="path5427-7-35-9"
         d="M 0,0 5,-5 -12.5,0 5,5 0,0 z"
         style="fill-rule:evenodd;stroke:#000000;stroke-width:1pt"
         transform="matrix(-0.8,0,0,-0.8,-10,0)" />
    </marker>
    <marker
       inkscape:stockid="Arrow1Lend"
       orient="auto"
       refY="0"
       refX="0"
       id="Arrow1Lend-7-11-9-2"
       style="overflow:visible">
      <path
         inkscape:connector-curvature="0"
         id="path5427-7-35-9-3"
         d="M 0,0 5,-5 -12.5,0 5,5 0,0 z"
         style="fill-rule:evenodd;stroke:#000000;stroke-width:1pt"
         transform="matrix(-0.8,0,0,-0.8,-10,0)" />
    </marker>
  </defs>
  <sodipodi:namedview
     id="base"
     pagecolor="#ffffff"
     bordercolor="#666666"
     borderopacity="1.0"
     inkscape:pageopacity="0.0"
     inkscape:pageshadow="2"
     inkscape:zoom="1.4"
     inkscape:cx="220.55852"
     inkscape:cy="117.24946"
     inkscape:document-units="px"
     inkscape:current-layer="layer1"
     showgrid="true"
     inkscape:snap-global="false"
     inkscape:window-width="1335"
     inkscape:window-height="768"
     inkscape:window-x="31"
     inkscape:window-y="-39"
     inkscape:window-maximized="1"
     fit-margin-top="0"
     fit-margin-left="0"
     fit-margin-right="0"
     fit-margin-bottom="0">
    <inkscape:grid
       type="xygrid"
       id="grid2985"
       units="mm"
       empspacing="5"
       visible="true"
       enabled="true"
       snapvisiblegridlinesonly="true"
       originx="2.6803869mm"
       originy="-441.74134mm" />
  </sodipodi:namedview>
  <metadata
     id="metadata7">
    <rdf:RDF>
      <cc:Work
         rdf:about="">
        <dc:format>image/svg+xml</dc:format>
        <dc:type
           rdf:resource="http://purl.org/dc/dcmitype/StillImage" />
        <dc:title />
      </cc:Work>
    </rdf:RDF>
  </metadata>
  <g
     inkscape:label="Layer 1"
     inkscape:groupmode="layer"
     id="layer1"
     transform="translate(9.4974337,928.07019)">
    <rect
       style="fill:none;stroke:#000000;stroke-width:1;stroke-linecap:square;stroke-miterlimit:4;stroke-opacity:1;stroke-dasharray:none;stroke-dashoffset:0"
       id="rect4241-3-1"
       width="70.866142"
       height="70.866142"
       x="70.866142"
       y="-861.02374" />
    <rect
       style="fill:#000000;fill-opacity:1;fill-rule:nonzero;stroke:#000000;stroke-width:0.17677669;stroke-linecap:square;stroke-miterlimit:4;stroke-opacity:1;stroke-dasharray:none;stroke-dashoffset:0"
       id="rect4630-2-6"
       width="8.8582678"
       height="17.716536"
       x="101.87007"
       y="-799.01575" />
    <rect
       style="fill:#808080;fill-opacity:1;fill-rule:nonzero;stroke:#000000;stroke-width:0.17677669;stroke-linecap:square;stroke-miterlimit:4;stroke-opacity:1;stroke-dasharray:none;stroke-dashoffset:0"
       id="rect4632-7-7"
       width="17.716536"
       height="8.8582678"
       x="62.007874"
       y="-830.01984" />
    <rect
       style="fill:#000000;fill-opacity:1;fill-rule:nonzero;stroke:#000000;stroke-width:0.17677669;stroke-linecap:square;stroke-miterlimit:4;stroke-opacity:1;stroke-dasharray:none;stroke-dashoffset:0"
       id="rect4630-9-2"
       width="8.8582678"
       height="17.716536"
       x="101.87007"
       y="-869.88184" />
    <rect
       style="fill:none;stroke:#000000;stroke-width:1;stroke-linecap:square;stroke-miterlimit:4;stroke-opacity:1;stroke-dasharray:none;stroke-dashoffset:0"
       id="rect4241-3-7"
       width="70.866142"
       height="70.866142"
       x="70.866142"
       y="-719.29144" />
    <rect
       style="fill:#000000;fill-opacity:1;fill-rule:nonzero;stroke:#000000;stroke-width:0.17677669;stroke-linecap:square;stroke-miterlimit:4;stroke-opacity:1;stroke-dasharray:none;stroke-dashoffset:0"
       id="rect4630-2-2"
       width="8.8582678"
       height="17.716536"
       x="101.87007"
       y="-657.28345" />
    <rect
       style="fill:#808080;fill-opacity:1;fill-rule:nonzero;stroke:#000000;stroke-width:0.17677669;stroke-linecap:square;stroke-miterlimit:4;stroke-opacity:1;stroke-dasharray:none;stroke-dashoffset:0"
       id="rect4632-7-9"
       width="17.716536"
       height="8.8582678"
       x="62.007874"
       y="-688.28754" />
    <rect
       style="fill:none;stroke:#000000;stroke-width:1;stroke-linecap:square;stroke-miterlimit:4;stroke-opacity:1;stroke-dasharray:none;stroke-dashoffset:0"
       id="rect4241-6-0"
       width="70.866142"
       height="70.866142"
       x="70.866142"
       y="-790.15753" />
    <rect
       style="fill:#000000;fill-opacity:1;fill-rule:nonzero;stroke:#000000;stroke-width:0.17677669;stroke-linecap:square;stroke-miterlimit:4;stroke-opacity:1;stroke-dasharray:none;stroke-dashoffset:0"
       id="rect4630-9-7"
       width="8.8582678"
       height="17.716536"
       x="101.87007"
       y="-728.14954" />
    <rect
       style="fill:#808080;fill-opacity:1;fill-rule:nonzero;stroke:#000000;stroke-width:0.17677669;stroke-linecap:square;stroke-miterlimit:4;stroke-opacity:1;stroke-dasharray:none;stroke-dashoffset:0"
       id="rect4632-8-8"
       width="17.716536"
       height="8.8582678"
       x="62.007874"
       y="-759.15363" />
    <rect
       style="fill:none;stroke:#000000;stroke-width:1;stroke-linecap:square;stroke-miterlimit:4;stroke-opacity:1;stroke-dasharray:none;stroke-dashoffset:0"
       id="rect4241-6-5"
       width="70.866142"
       height="70.866142"
       x="70.866142"
       y="-648.42529" />
    <rect
       style="fill:#000000;fill-opacity:1;fill-rule:nonzero;stroke:#000000;stroke-width:0.17677669;stroke-linecap:square;stroke-miterlimit:4;stroke-opacity:1;stroke-dasharray:none;stroke-dashoffset:0"
       id="rect4630-9-6"
       width="8.8582678"
       height="17.716536"
       x="101.87007"
       y="-586.4173" />
    <rect
       style="fill:#808080;fill-opacity:1;fill-rule:nonzero;stroke:#000000;stroke-width:0.17677669;stroke-linecap:square;stroke-miterlimit:4;stroke-opacity:1;stroke-dasharray:none;stroke-dashoffset:0"
       id="rect4632-8-4"
       width="17.716536"
       height="8.8582678"
       x="62.007874"
       y="-617.42139" />
    <rect
       style="fill:#000000;fill-opacity:1;fill-rule:nonzero;stroke:#000000;stroke-width:0.17677669;stroke-linecap:square;stroke-miterlimit:4;stroke-opacity:1;stroke-dasharray:none;stroke-dashoffset:0"
       id="rect4630-33-5"
       width="8.8582678"
       height="17.716536"
       x="172.73622"
       y="-869.8819" />
    <rect
       style="fill:none;stroke:#000000;stroke-width:1;stroke-linecap:square;stroke-miterlimit:4;stroke-opacity:1;stroke-dasharray:none;stroke-dashoffset:0"
       id="rect4241-9-0-5"
       width="70.866142"
       height="70.866142"
       x="141.73228"
       y="-861.0238" />
    <rect
       style="fill:#000000;fill-opacity:1;fill-rule:nonzero;stroke:#000000;stroke-width:0.17677669;stroke-linecap:square;stroke-miterlimit:4;stroke-opacity:1;stroke-dasharray:none;stroke-dashoffset:0"
       id="rect4630-3-7-4"
       width="8.8582678"
       height="17.716536"
       x="172.73622"
       y="-799.01581" />
    <rect
       style="fill:#808080;fill-opacity:1;fill-rule:nonzero;stroke:#000000;stroke-width:0.17677669;stroke-linecap:square;stroke-miterlimit:4;stroke-opacity:1;stroke-dasharray:none;stroke-dashoffset:0"
       id="rect4632-1-5-0"
       width="17.716536"
       height="8.8582678"
       x="132.87401"
       y="-830.0199" />
    <rect
       style="fill:none;stroke:#000000;stroke-width:1;stroke-linecap:square;stroke-miterlimit:4;stroke-opacity:1;stroke-dasharray:none;stroke-dashoffset:0"
       id="rect4241-3-1-4"
       width="70.866142"
       height="70.866142"
       x="212.59842"
       y="-861.0238" />
    <rect
       style="fill:#000000;fill-opacity:1;fill-rule:nonzero;stroke:#000000;stroke-width:0.17677669;stroke-linecap:square;stroke-miterlimit:4;stroke-opacity:1;stroke-dasharray:none;stroke-dashoffset:0"
       id="rect4630-2-6-2"
       width="8.8582678"
       height="17.716536"
       x="243.60236"
       y="-799.01581" />
    <rect
       style="fill:#808080;fill-opacity:1;fill-rule:nonzero;stroke:#000000;stroke-width:0.17677669;stroke-linecap:square;stroke-miterlimit:4;stroke-opacity:1;stroke-dasharray:none;stroke-dashoffset:0"
       id="rect4632-7-7-6"
       width="17.716536"
       height="8.8582678"
       x="203.74016"
       y="-830.0199" />
    <rect
       style="fill:#000000;fill-opacity:1;fill-rule:nonzero;stroke:#000000;stroke-width:0.17677669;stroke-linecap:square;stroke-miterlimit:4;stroke-opacity:1;stroke-dasharray:none;stroke-dashoffset:0"
       id="rect4630-9-2-3"
       width="8.8582678"
       height="17.716536"
       x="243.60236"
       y="-869.8819" />
    <rect
       style="fill:none;stroke:#000000;stroke-width:1;stroke-linecap:square;stroke-miterlimit:4;stroke-opacity:1;stroke-dasharray:none;stroke-dashoffset:0"
       id="rect4241-97-1"
       width="70.866142"
       height="70.866142"
       x="141.73228"
       y="-790.15759" />
    <rect
       style="fill:#000000;fill-opacity:1;fill-rule:nonzero;stroke:#000000;stroke-width:0.17677669;stroke-linecap:square;stroke-miterlimit:4;stroke-opacity:1;stroke-dasharray:none;stroke-dashoffset:0"
       id="rect4630-37-5"
       width="8.8582678"
       height="17.716536"
       x="172.73622"
       y="-728.1496" />
    <rect
       style="fill:#808080;fill-opacity:1;fill-rule:nonzero;stroke:#000000;stroke-width:0.17677669;stroke-linecap:square;stroke-miterlimit:4;stroke-opacity:1;stroke-dasharray:none;stroke-dashoffset:0"
       id="rect4632-3-3"
       width="17.716536"
       height="8.8582678"
       x="132.87401"
       y="-759.15369" />
    <rect
       style="fill:none;stroke:#000000;stroke-width:1;stroke-linecap:square;stroke-miterlimit:4;stroke-opacity:1;stroke-dasharray:none;stroke-dashoffset:0"
       id="rect4241-9-8-8"
       width="70.866142"
       height="70.866142"
       x="141.73228"
       y="-719.2915" />
    <rect
       style="fill:#000000;fill-opacity:1;fill-rule:nonzero;stroke:#000000;stroke-width:0.17677669;stroke-linecap:square;stroke-miterlimit:4;stroke-opacity:1;stroke-dasharray:none;stroke-dashoffset:0"
       id="rect4630-3-9-3"
       width="8.8582678"
       height="17.716536"
       x="172.73622"
       y="-657.28351" />
    <rect
       style="fill:#808080;fill-opacity:1;fill-rule:nonzero;stroke:#000000;stroke-width:0.17677669;stroke-linecap:square;stroke-miterlimit:4;stroke-opacity:1;stroke-dasharray:none;stroke-dashoffset:0"
       id="rect4632-1-6-9"
       width="17.716536"
       height="8.8582678"
       x="132.87401"
       y="-688.2876" />
    <rect
       style="fill:none;stroke:#000000;stroke-width:1;stroke-linecap:square;stroke-miterlimit:4;stroke-opacity:1;stroke-dasharray:none;stroke-dashoffset:0"
       id="rect4241-3-7-2"
       width="70.866142"
       height="70.866142"
       x="212.59842"
       y="-719.2915" />
    <rect
       style="fill:#000000;fill-opacity:1;fill-rule:nonzero;stroke:#000000;stroke-width:0.17677669;stroke-linecap:square;stroke-miterlimit:4;stroke-opacity:1;stroke-dasharray:none;stroke-dashoffset:0"
       id="rect4630-2-2-3"
       width="8.8582678"
       height="17.716536"
       x="243.60236"
       y="-657.28351" />
    <rect
       style="fill:#808080;fill-opacity:1;fill-rule:nonzero;stroke:#000000;stroke-width:0.17677669;stroke-linecap:square;stroke-miterlimit:4;stroke-opacity:1;stroke-dasharray:none;stroke-dashoffset:0"
       id="rect4632-7-9-0"
       width="17.716536"
       height="8.8582678"
       x="203.74016"
       y="-688.2876" />
    <rect
       style="fill:none;stroke:#000000;stroke-width:1;stroke-linecap:square;stroke-miterlimit:4;stroke-opacity:1;stroke-dasharray:none;stroke-dashoffset:0"
       id="rect4241-6-0-4"
       width="70.866142"
       height="70.866142"
       x="212.59842"
       y="-790.15759" />
    <rect
       style="fill:#000000;fill-opacity:1;fill-rule:nonzero;stroke:#000000;stroke-width:0.17677669;stroke-linecap:square;stroke-miterlimit:4;stroke-opacity:1;stroke-dasharray:none;stroke-dashoffset:0"
       id="rect4630-9-7-0"
       width="8.8582678"
       height="17.716536"
       x="243.60236"
       y="-728.1496" />
    <rect
       style="fill:#808080;fill-opacity:1;fill-rule:nonzero;stroke:#000000;stroke-width:0.17677669;stroke-linecap:square;stroke-miterlimit:4;stroke-opacity:1;stroke-dasharray:none;stroke-dashoffset:0"
       id="rect4632-8-8-7"
       width="17.716536"
       height="8.8582678"
       x="203.74016"
       y="-759.15369" />
    <rect
       style="fill:none;stroke:#000000;stroke-width:1;stroke-linecap:square;stroke-miterlimit:4;stroke-opacity:1;stroke-dasharray:none;stroke-dashoffset:0"
       id="rect4241-66-6"
       width="70.866142"
       height="70.866142"
       x="141.73228"
       y="-648.42535" />
    <rect
       style="fill:#000000;fill-opacity:1;fill-rule:nonzero;stroke:#000000;stroke-width:0.17677669;stroke-linecap:square;stroke-miterlimit:4;stroke-opacity:1;stroke-dasharray:none;stroke-dashoffset:0"
       id="rect4630-7-0"
       width="8.8582678"
       height="17.716536"
       x="172.73622"
       y="-586.41736" />
    <rect
       style="fill:#808080;fill-opacity:1;fill-rule:nonzero;stroke:#000000;stroke-width:0.17677669;stroke-linecap:square;stroke-miterlimit:4;stroke-opacity:1;stroke-dasharray:none;stroke-dashoffset:0"
       id="rect4632-84-3"
       width="17.716536"
       height="8.8582678"
       x="132.87401"
       y="-617.42145" />
    <rect
       style="fill:none;stroke:#000000;stroke-width:1;stroke-linecap:square;stroke-miterlimit:4;stroke-opacity:1;stroke-dasharray:none;stroke-dashoffset:0"
       id="rect4241-6-5-5"
       width="70.866142"
       height="70.866142"
       x="212.59842"
       y="-648.42535" />
    <rect
       style="fill:#000000;fill-opacity:1;fill-rule:nonzero;stroke:#000000;stroke-width:0.17677669;stroke-linecap:square;stroke-miterlimit:4;stroke-opacity:1;stroke-dasharray:none;stroke-dashoffset:0"
       id="rect4630-9-6-3"
       width="8.8582678"
       height="17.716536"
       x="243.60236"
       y="-586.41736" />
    <rect
       style="fill:#808080;fill-opacity:1;fill-rule:nonzero;stroke:#000000;stroke-width:0.17677669;stroke-linecap:square;stroke-miterlimit:4;stroke-opacity:1;stroke-dasharray:none;stroke-dashoffset:0"
       id="rect4632-8-4-7"
       width="17.716536"
       height="8.8582678"
       x="203.74016"
       y="-617.42145" />
    <rect
       style="fill:#000000;fill-opacity:1;fill-rule:nonzero;stroke:#000000;stroke-width:0.17677669;stroke-linecap:square;stroke-miterlimit:4;stroke-opacity:1;stroke-dasharray:none;stroke-dashoffset:0"
       id="rect4630-33-3"
       width="8.8582678"
       height="17.716536"
       x="314.46851"
       y="-869.8819" />
    <rect
       style="fill:none;stroke:#000000;stroke-width:1;stroke-linecap:square;stroke-miterlimit:4;stroke-opacity:1;stroke-dasharray:none;stroke-dashoffset:0"
       id="rect4241-9-0-6"
       width="70.866142"
       height="70.866142"
       x="283.46457"
       y="-861.0238" />
    <rect
       style="fill:#000000;fill-opacity:1;fill-rule:nonzero;stroke:#000000;stroke-width:0.17677669;stroke-linecap:square;stroke-miterlimit:4;stroke-opacity:1;stroke-dasharray:none;stroke-dashoffset:0"
       id="rect4630-3-7-2"
       width="8.8582678"
       height="17.716536"
       x="314.46851"
       y="-799.01581" />
    <rect
       style="fill:#808080;fill-opacity:1;fill-rule:nonzero;stroke:#000000;stroke-width:0.17677669;stroke-linecap:square;stroke-miterlimit:4;stroke-opacity:1;stroke-dasharray:none;stroke-dashoffset:0"
       id="rect4632-1-5-9"
       width="17.716536"
       height="8.8582678"
       x="274.60629"
       y="-830.0199" />
    <rect
       style="fill:#808080;fill-opacity:1;fill-rule:nonzero;stroke:#000000;stroke-width:0.17677669;stroke-linecap:square;stroke-miterlimit:4;stroke-opacity:1;stroke-dasharray:none;stroke-dashoffset:0"
       id="rect4632-7-7-0"
       width="17.716536"
       height="8.8582678"
       x="345.47244"
       y="-830.0199" />
    <rect
       style="fill:none;stroke:#000000;stroke-width:1;stroke-linecap:square;stroke-miterlimit:4;stroke-opacity:1;stroke-dasharray:none;stroke-dashoffset:0"
       id="rect4241-97-0"
       width="70.866142"
       height="70.866142"
       x="283.46457"
       y="-790.15759" />
    <rect
       style="fill:#000000;fill-opacity:1;fill-rule:nonzero;stroke:#000000;stroke-width:0.17677669;stroke-linecap:square;stroke-miterlimit:4;stroke-opacity:1;stroke-dasharray:none;stroke-dashoffset:0"
       id="rect4630-37-9"
       width="8.8582678"
       height="17.716536"
       x="314.46851"
       y="-728.1496" />
    <rect
       style="fill:#808080;fill-opacity:1;fill-rule:nonzero;stroke:#000000;stroke-width:0.17677669;stroke-linecap:square;stroke-miterlimit:4;stroke-opacity:1;stroke-dasharray:none;stroke-dashoffset:0"
       id="rect4632-3-1"
       width="17.716536"
       height="8.8582678"
       x="274.60629"
       y="-759.15369" />
    <rect
       style="fill:none;stroke:#000000;stroke-width:1;stroke-linecap:square;stroke-miterlimit:4;stroke-opacity:1;stroke-dasharray:none;stroke-dashoffset:0"
       id="rect4241-9-8-4"
       width="70.866142"
       height="70.866142"
       x="283.46457"
       y="-719.2915" />
    <rect
       style="fill:#000000;fill-opacity:1;fill-rule:nonzero;stroke:#000000;stroke-width:0.17677669;stroke-linecap:square;stroke-miterlimit:4;stroke-opacity:1;stroke-dasharray:none;stroke-dashoffset:0"
       id="rect4630-3-9-7"
       width="8.8582678"
       height="17.716536"
       x="314.46851"
       y="-657.28351" />
    <rect
       style="fill:#808080;fill-opacity:1;fill-rule:nonzero;stroke:#000000;stroke-width:0.17677669;stroke-linecap:square;stroke-miterlimit:4;stroke-opacity:1;stroke-dasharray:none;stroke-dashoffset:0"
       id="rect4632-1-6-7"
       width="17.716536"
       height="8.8582678"
       x="274.60629"
       y="-688.2876" />
    <rect
       style="fill:#808080;fill-opacity:1;fill-rule:nonzero;stroke:#000000;stroke-width:0.17677669;stroke-linecap:square;stroke-miterlimit:4;stroke-opacity:1;stroke-dasharray:none;stroke-dashoffset:0"
       id="rect4632-7-9-9"
       width="17.716536"
       height="8.8582678"
       x="345.47244"
       y="-688.2876" />
    <rect
       style="fill:#808080;fill-opacity:1;fill-rule:nonzero;stroke:#000000;stroke-width:0.17677669;stroke-linecap:square;stroke-miterlimit:4;stroke-opacity:1;stroke-dasharray:none;stroke-dashoffset:0"
       id="rect4632-8-8-5"
       width="17.716536"
       height="8.8582678"
       x="345.47244"
       y="-759.15369" />
    <rect
       style="fill:none;stroke:#000000;stroke-width:1;stroke-linecap:square;stroke-miterlimit:4;stroke-opacity:1;stroke-dasharray:none;stroke-dashoffset:0"
       id="rect4241-66-5"
       width="70.866142"
       height="70.866142"
       x="283.46457"
       y="-648.42535" />
    <rect
       style="fill:#000000;fill-opacity:1;fill-rule:nonzero;stroke:#000000;stroke-width:0.17677669;stroke-linecap:square;stroke-miterlimit:4;stroke-opacity:1;stroke-dasharray:none;stroke-dashoffset:0"
       id="rect4630-7-7"
       width="8.8582678"
       height="17.716536"
       x="314.46851"
       y="-586.41736" />
    <rect
       style="fill:#808080;fill-opacity:1;fill-rule:nonzero;stroke:#000000;stroke-width:0.17677669;stroke-linecap:square;stroke-miterlimit:4;stroke-opacity:1;stroke-dasharray:none;stroke-dashoffset:0"
       id="rect4632-84-5"
       width="17.716536"
       height="8.8582678"
       x="274.60629"
       y="-617.42145" />
    <rect
       style="fill:#808080;fill-opacity:1;fill-rule:nonzero;stroke:#000000;stroke-width:0.17677669;stroke-linecap:square;stroke-miterlimit:4;stroke-opacity:1;stroke-dasharray:none;stroke-dashoffset:0"
       id="rect4632-8-4-6"
       width="17.716536"
       height="8.8582678"
       x="345.47244"
       y="-617.42145" />
    <text
       xml:space="preserve"
       style="font-size:22px;font-style:normal;font-weight:normal;line-height:125%;letter-spacing:0px;word-spacing:0px;fill:#000000;fill-opacity:1;stroke:none;font-family:Bitstream Vera Sans"
       x="-11.366574"
       y="-719.61572"
       id="text3909"
       sodipodi:linespacing="125%"><tspan
         sodipodi:role="line"
         id="tspan3911"
         x="-11.366574"
         y="-719.61572">u_x</tspan></text>
    <path
       style="fill:none;stroke:#000000;stroke-width:1.5;stroke-linecap:butt;stroke-linejoin:miter;stroke-miterlimit:4;stroke-opacity:1;stroke-dasharray:none;marker-end:url(#Arrow1Lend-7)"
       d="M 42.142857,191.20447 74.999999,110.49018"
       id="path3913"
       inkscape:connector-curvature="0"
       transform="translate(-15.652288,-927.96307)" />
    <path
       style="fill:none;stroke:#000000;stroke-width:1.5;stroke-linecap:butt;stroke-linejoin:miter;stroke-miterlimit:4;stroke-opacity:1;stroke-dasharray:none;marker-end:url(#Arrow1Lend-7)"
       d="m 25.061998,-710.68718 32.857142,80.71429"
       id="path3913-5"
       inkscape:connector-curvature="0" />
    <path
       style="fill:none;stroke:#000000;stroke-width:1;stroke-linecap:butt;stroke-linejoin:miter;stroke-miterlimit:4;stroke-opacity:1;stroke-dasharray:none;marker-end:url(#Arrow1Lend-7-1)"
       d="m 50.714285,198.34733 21.428572,-20"
       id="path4125"
       inkscape:connector-curvature="0"
       transform="translate(-15.652288,-927.96307)" />
    <path
       style="fill:none;stroke:#000000;stroke-width:1;stroke-linecap:butt;stroke-linejoin:miter;stroke-miterlimit:4;stroke-opacity:1;stroke-dasharray:none;marker-end:url(#Arrow1Lend-7-1)"
       d="m 34.347712,-715.33003 21.428572,20"
       id="path4125-1"
       inkscape:connector-curvature="0" />
    <text
       xml:space="preserve"
       style="font-size:22px;font-style:normal;font-weight:normal;line-height:125%;letter-spacing:0px;word-spacing:0px;fill:#000000;fill-opacity:1;stroke:none;font-family:Bitstream Vera Sans"
       x="194.78081"
       y="-518.05151"
       id="text3909-9"
       sodipodi:linespacing="125%"><tspan
         sodipodi:role="line"
         id="tspan3911-3"
         x="194.78081"
         y="-518.05151">u_y</tspan></text>
    <path
       style="fill:none;stroke:#000000;stroke-width:1.5;stroke-linecap:butt;stroke-linejoin:miter;stroke-miterlimit:4;stroke-opacity:1;stroke-dasharray:none;marker-end:url(#Arrow1Lend-7)"
       d="m 229.70485,-533.90145 80.71429,-32.85715"
       id="path3913-9"
       inkscape:connector-curvature="0" />
    <path
       style="fill:none;stroke:#000000;stroke-width:1.5;stroke-linecap:butt;stroke-linejoin:miter;stroke-miterlimit:4;stroke-opacity:1;stroke-dasharray:none;marker-end:url(#Arrow1Lend-7)"
       d="m 192.56199,-533.18717 -80.71428,-32.85715"
       id="path3913-9-1"
       inkscape:connector-curvature="0" />
    <path
       style="fill:none;stroke:#000000;stroke-width:1;stroke-linecap:butt;stroke-linejoin:miter;stroke-miterlimit:4;stroke-opacity:1;stroke-dasharray:none;marker-end:url(#Arrow1Lend-7-1)"
       d="m 219.34771,-539.18717 21.42857,-20"
       id="path4125-1-0"
       inkscape:connector-curvature="0" />
    <path
       style="fill:none;stroke:#000000;stroke-width:1;stroke-linecap:butt;stroke-linejoin:miter;stroke-miterlimit:4;stroke-opacity:1;stroke-dasharray:none;marker-end:url(#Arrow1Lend-7-1)"
       d="m 204.34771,-539.90146 -21.42857,-20"
       id="path4125-1-3"
       inkscape:connector-curvature="0" />
    <path
       sodipodi:type="arc"
       style="fill:url(#radialGradient4453);fill-opacity:1;fill-rule:nonzero;stroke:#a4a4a4;stroke-width:1;stroke-linecap:square;stroke-linejoin:miter;stroke-miterlimit:4;stroke-opacity:1;stroke-dasharray:none;stroke-dashoffset:0"
       id="path4445"
       sodipodi:cx="57.5"
       sodipodi:cy="37.275898"
       sodipodi:rx="8.2142859"
       sodipodi:ry="8.2142859"
       d="m 65.714286,37.275898 c 0,4.536625 -3.677661,8.214286 -8.214286,8.214286 -4.536625,0 -8.214286,-3.677661 -8.214286,-8.214286 0,-4.536625 3.677661,-8.214286 8.214286,-8.214286 4.497655,0 8.158973,3.617052 8.213678,8.114375"
       transform="translate(48.799205,-862.8666)"
       sodipodi:start="0"
       sodipodi:end="6.2710219"
       sodipodi:open="true" />
    <path
       sodipodi:type="arc"
       style="fill:url(#radialGradient4470);fill-opacity:1;fill-rule:nonzero;stroke:#a4a4a4;stroke-width:1;stroke-linecap:square;stroke-linejoin:miter;stroke-miterlimit:4;stroke-opacity:1;stroke-dasharray:none;stroke-dashoffset:0"
       id="path4445-6"
       sodipodi:cx="57.5"
       sodipodi:cy="37.275898"
       sodipodi:rx="8.2142859"
       sodipodi:ry="8.2142859"
       d="m 65.714286,37.275898 c 0,4.536625 -3.677661,8.214286 -8.214286,8.214286 -4.536625,0 -8.214286,-3.677661 -8.214286,-8.214286 0,-4.536625 3.677661,-8.214286 8.214286,-8.214286 4.497655,0 8.158973,3.617052 8.213678,8.114375"
       transform="translate(119.66536,-862.8666)"
       sodipodi:start="0"
       sodipodi:end="6.2710219"
       sodipodi:open="true" />
    <path
       sodipodi:type="arc"
       style="fill:url(#radialGradient4470-3);fill-opacity:1;fill-rule:nonzero;stroke:#a4a4a4;stroke-width:1;stroke-linecap:square;stroke-linejoin:miter;stroke-miterlimit:4;stroke-opacity:1;stroke-dasharray:none;stroke-dashoffset:0"
       id="path4445-68"
       sodipodi:cx="57.5"
       sodipodi:cy="37.275898"
       sodipodi:rx="8.2142859"
       sodipodi:ry="8.2142859"
       d="m 65.714286,37.275898 c 0,4.536625 -3.677661,8.214286 -8.214286,8.214286 -4.536625,0 -8.214286,-3.677661 -8.214286,-8.214286 0,-4.536625 3.677661,-8.214286 8.214286,-8.214286 4.497655,0 8.158973,3.617052 8.213678,8.114375"
       transform="translate(190.53149,-862.8666)"
       sodipodi:start="0"
       sodipodi:end="6.2710219"
       sodipodi:open="true" />
    <path
       sodipodi:type="arc"
       style="fill:url(#radialGradient4470-5);fill-opacity:1;fill-rule:nonzero;stroke:#a4a4a4;stroke-width:1;stroke-linecap:square;stroke-linejoin:miter;stroke-miterlimit:4;stroke-opacity:1;stroke-dasharray:none;stroke-dashoffset:0"
       id="path4445-5"
       sodipodi:cx="57.5"
       sodipodi:cy="37.275898"
       sodipodi:rx="8.2142859"
       sodipodi:ry="8.2142859"
       d="m 65.714286,37.275898 c 0,4.536625 -3.677661,8.214286 -8.214286,8.214286 -4.536625,0 -8.214286,-3.677661 -8.214286,-8.214286 0,-4.536625 3.677661,-8.214286 8.214286,-8.214286 4.497655,0 8.158973,3.617052 8.213678,8.114375"
       transform="translate(261.39764,-862.8666)"
       sodipodi:start="0"
       sodipodi:end="6.2710219"
       sodipodi:open="true" />
    <path
       sodipodi:type="arc"
       style="fill:url(#radialGradient4571);fill-opacity:1;fill-rule:nonzero;stroke:#a4a4a4;stroke-width:1;stroke-linecap:square;stroke-linejoin:miter;stroke-miterlimit:4;stroke-opacity:1;stroke-dasharray:none;stroke-dashoffset:0"
       id="path4445-54"
       sodipodi:cx="57.5"
       sodipodi:cy="37.275898"
       sodipodi:rx="8.2142859"
       sodipodi:ry="8.2142859"
       d="m 65.714286,37.275898 c 0,4.536625 -3.677661,8.214286 -8.214286,8.214286 -4.536625,0 -8.214286,-3.677661 -8.214286,-8.214286 0,-4.536625 3.677661,-8.214286 8.214286,-8.214286 4.497655,0 8.158973,3.617052 8.213678,8.114375"
       transform="translate(48.799205,-792.00039)"
       sodipodi:start="0"
       sodipodi:end="6.2710219"
       sodipodi:open="true" />
    <path
       sodipodi:type="arc"
       style="fill:url(#radialGradient4571-8);fill-opacity:1;fill-rule:nonzero;stroke:#a4a4a4;stroke-width:1;stroke-linecap:square;stroke-linejoin:miter;stroke-miterlimit:4;stroke-opacity:1;stroke-dasharray:none;stroke-dashoffset:0"
       id="path4445-52"
       sodipodi:cx="57.5"
       sodipodi:cy="37.275898"
       sodipodi:rx="8.2142859"
       sodipodi:ry="8.2142859"
       d="m 65.714286,37.275898 c 0,4.536625 -3.677661,8.214286 -8.214286,8.214286 -4.536625,0 -8.214286,-3.677661 -8.214286,-8.214286 0,-4.536625 3.677661,-8.214286 8.214286,-8.214286 4.497655,0 8.158973,3.617052 8.213678,8.114375"
       transform="translate(48.799205,-721.1343)"
       sodipodi:start="0"
       sodipodi:end="6.2710219"
       sodipodi:open="true" />
    <path
       sodipodi:type="arc"
       style="fill:url(#radialGradient4571-9);fill-opacity:1;fill-rule:nonzero;stroke:#a4a4a4;stroke-width:1;stroke-linecap:square;stroke-linejoin:miter;stroke-miterlimit:4;stroke-opacity:1;stroke-dasharray:none;stroke-dashoffset:0"
       id="path4445-8"
       sodipodi:cx="57.5"
       sodipodi:cy="37.275898"
       sodipodi:rx="8.2142859"
       sodipodi:ry="8.2142859"
       d="m 65.714286,37.275898 c 0,4.536625 -3.677661,8.214286 -8.214286,8.214286 -4.536625,0 -8.214286,-3.677661 -8.214286,-8.214286 0,-4.536625 3.677661,-8.214286 8.214286,-8.214286 4.497655,0 8.158973,3.617052 8.213678,8.114375"
       transform="translate(48.799205,-650.26815)"
       sodipodi:start="0"
       sodipodi:end="6.2710219"
       sodipodi:open="true" />
    <path
       sodipodi:type="arc"
       style="fill:url(#radialGradient4571-6);fill-opacity:1;fill-rule:nonzero;stroke:#a4a4a4;stroke-width:1;stroke-linecap:square;stroke-linejoin:miter;stroke-miterlimit:4;stroke-opacity:1;stroke-dasharray:none;stroke-dashoffset:0"
       id="path4445-0"
       sodipodi:cx="57.5"
       sodipodi:cy="37.275898"
       sodipodi:rx="8.2142859"
       sodipodi:ry="8.2142859"
       d="m 65.714286,37.275898 c 0,4.536625 -3.677661,8.214286 -8.214286,8.214286 -4.536625,0 -8.214286,-3.677661 -8.214286,-8.214286 0,-4.536625 3.677661,-8.214286 8.214286,-8.214286 4.497655,0 8.158973,3.617052 8.213678,8.114375"
       transform="translate(119.66536,-792.00039)"
       sodipodi:start="0"
       sodipodi:end="6.2710219"
       sodipodi:open="true" />
    <path
       sodipodi:type="arc"
       style="fill:url(#radialGradient4571-85);fill-opacity:1;fill-rule:nonzero;stroke:#a4a4a4;stroke-width:1;stroke-linecap:square;stroke-linejoin:miter;stroke-miterlimit:4;stroke-opacity:1;stroke-dasharray:none;stroke-dashoffset:0"
       id="path4445-4"
       sodipodi:cx="57.5"
       sodipodi:cy="37.275898"
       sodipodi:rx="8.2142859"
       sodipodi:ry="8.2142859"
       d="m 65.714286,37.275898 c 0,4.536625 -3.677661,8.214286 -8.214286,8.214286 -4.536625,0 -8.214286,-3.677661 -8.214286,-8.214286 0,-4.536625 3.677661,-8.214286 8.214286,-8.214286 4.497655,0 8.158973,3.617052 8.213678,8.114375"
       transform="translate(119.66536,-721.1343)"
       sodipodi:start="0"
       sodipodi:end="6.2710219"
       sodipodi:open="true" />
    <path
       sodipodi:type="arc"
       style="fill:url(#radialGradient4571-4);fill-opacity:1;fill-rule:nonzero;stroke:#a4a4a4;stroke-width:1;stroke-linecap:square;stroke-linejoin:miter;stroke-miterlimit:4;stroke-opacity:1;stroke-dasharray:none;stroke-dashoffset:0"
       id="path4445-9"
       sodipodi:cx="57.5"
       sodipodi:cy="37.275898"
       sodipodi:rx="8.2142859"
       sodipodi:ry="8.2142859"
       d="m 65.714286,37.275898 c 0,4.536625 -3.677661,8.214286 -8.214286,8.214286 -4.536625,0 -8.214286,-3.677661 -8.214286,-8.214286 0,-4.536625 3.677661,-8.214286 8.214286,-8.214286 4.497655,0 8.158973,3.617052 8.213678,8.114375"
       transform="translate(119.66536,-650.26815)"
       sodipodi:start="0"
       sodipodi:end="6.2710219"
       sodipodi:open="true" />
    <path
       sodipodi:type="arc"
       style="fill:url(#radialGradient4571-1);fill-opacity:1;fill-rule:nonzero;stroke:#a4a4a4;stroke-width:1;stroke-linecap:square;stroke-linejoin:miter;stroke-miterlimit:4;stroke-opacity:1;stroke-dasharray:none;stroke-dashoffset:0"
       id="path4445-529"
       sodipodi:cx="57.5"
       sodipodi:cy="37.275898"
       sodipodi:rx="8.2142859"
       sodipodi:ry="8.2142859"
       d="m 65.714286,37.275898 c 0,4.536625 -3.677661,8.214286 -8.214286,8.214286 -4.536625,0 -8.214286,-3.677661 -8.214286,-8.214286 0,-4.536625 3.677661,-8.214286 8.214286,-8.214286 4.497655,0 8.158973,3.617052 8.213678,8.114375"
       transform="translate(190.53149,-792.00039)"
       sodipodi:start="0"
       sodipodi:end="6.2710219"
       sodipodi:open="true" />
    <path
       sodipodi:type="arc"
       style="fill:url(#radialGradient4571-2);fill-opacity:1;fill-rule:nonzero;stroke:#a4a4a4;stroke-width:1;stroke-linecap:square;stroke-linejoin:miter;stroke-miterlimit:4;stroke-opacity:1;stroke-dasharray:none;stroke-dashoffset:0"
       id="path4445-47"
       sodipodi:cx="57.5"
       sodipodi:cy="37.275898"
       sodipodi:rx="8.2142859"
       sodipodi:ry="8.2142859"
       d="m 65.714286,37.275898 c 0,4.536625 -3.677661,8.214286 -8.214286,8.214286 -4.536625,0 -8.214286,-3.677661 -8.214286,-8.214286 0,-4.536625 3.677661,-8.214286 8.214286,-8.214286 4.497655,0 8.158973,3.617052 8.213678,8.114375"
       transform="translate(190.53149,-721.1343)"
       sodipodi:start="0"
       sodipodi:end="6.2710219"
       sodipodi:open="true" />
    <path
       sodipodi:type="arc"
       style="fill:url(#radialGradient4571-93);fill-opacity:1;fill-rule:nonzero;stroke:#a4a4a4;stroke-width:1;stroke-linecap:square;stroke-linejoin:miter;stroke-miterlimit:4;stroke-opacity:1;stroke-dasharray:none;stroke-dashoffset:0"
       id="path4445-2"
       sodipodi:cx="57.5"
       sodipodi:cy="37.275898"
       sodipodi:rx="8.2142859"
       sodipodi:ry="8.2142859"
       d="m 65.714286,37.275898 c 0,4.536625 -3.677661,8.214286 -8.214286,8.214286 -4.536625,0 -8.214286,-3.677661 -8.214286,-8.214286 0,-4.536625 3.677661,-8.214286 8.214286,-8.214286 4.497655,0 8.158973,3.617052 8.213678,8.114375"
       transform="translate(190.53149,-650.26815)"
       sodipodi:start="0"
       sodipodi:end="6.2710219"
       sodipodi:open="true" />
    <path
       sodipodi:type="arc"
       style="fill:url(#radialGradient4571-3);fill-opacity:1;fill-rule:nonzero;stroke:#a4a4a4;stroke-width:1;stroke-linecap:square;stroke-linejoin:miter;stroke-miterlimit:4;stroke-opacity:1;stroke-dasharray:none;stroke-dashoffset:0"
       id="path4445-40"
       sodipodi:cx="57.5"
       sodipodi:cy="37.275898"
       sodipodi:rx="8.2142859"
       sodipodi:ry="8.2142859"
       d="m 65.714286,37.275898 c 0,4.536625 -3.677661,8.214286 -8.214286,8.214286 -4.536625,0 -8.214286,-3.677661 -8.214286,-8.214286 0,-4.536625 3.677661,-8.214286 8.214286,-8.214286 4.497655,0 8.158973,3.617052 8.213678,8.114375"
       transform="translate(261.39764,-792.00039)"
       sodipodi:start="0"
       sodipodi:end="6.2710219"
       sodipodi:open="true" />
    <path
       sodipodi:type="arc"
       style="fill:url(#radialGradient4571-0);fill-opacity:1;fill-rule:nonzero;stroke:#a4a4a4;stroke-width:1;stroke-linecap:square;stroke-linejoin:miter;stroke-miterlimit:4;stroke-opacity:1;stroke-dasharray:none;stroke-dashoffset:0"
       id="path4445-7"
       sodipodi:cx="57.5"
       sodipodi:cy="37.275898"
       sodipodi:rx="8.2142859"
       sodipodi:ry="8.2142859"
       d="m 65.714286,37.275898 c 0,4.536625 -3.677661,8.214286 -8.214286,8.214286 -4.536625,0 -8.214286,-3.677661 -8.214286,-8.214286 0,-4.536625 3.677661,-8.214286 8.214286,-8.214286 4.497655,0 8.158973,3.617052 8.213678,8.114375"
       transform="translate(261.39764,-721.1343)"
       sodipodi:start="0"
       sodipodi:end="6.2710219"
       sodipodi:open="true" />
    <path
       sodipodi:type="arc"
       style="fill:url(#radialGradient4571-66);fill-opacity:1;fill-rule:nonzero;stroke:#a4a4a4;stroke-width:1;stroke-linecap:square;stroke-linejoin:miter;stroke-miterlimit:4;stroke-opacity:1;stroke-dasharray:none;stroke-dashoffset:0"
       id="path4445-78"
       sodipodi:cx="57.5"
       sodipodi:cy="37.275898"
       sodipodi:rx="8.2142859"
       sodipodi:ry="8.2142859"
       d="m 65.714286,37.275898 c 0,4.536625 -3.677661,8.214286 -8.214286,8.214286 -4.536625,0 -8.214286,-3.677661 -8.214286,-8.214286 0,-4.536625 3.677661,-8.214286 8.214286,-8.214286 4.497655,0 8.158973,3.617052 8.213678,8.114375"
       transform="translate(261.39764,-650.26815)"
       sodipodi:start="0"
       sodipodi:end="6.2710219"
       sodipodi:open="true" />
    <text
       xml:space="preserve"
       style="font-size:22px;font-style:normal;font-weight:normal;line-height:125%;letter-spacing:0px;word-spacing:0px;fill:#000000;fill-opacity:1;stroke:none;font-family:Bitstream Vera Sans"
       x="195.4951"
       y="-912.62292"
       id="text3909-7"
       sodipodi:linespacing="125%"><tspan
         sodipodi:role="line"
         id="tspan3911-35"
         x="195.4951"
         y="-912.62292">u_t</tspan></text>
    <path
       style="fill:none;stroke:#000000;stroke-width:1px;stroke-linecap:butt;stroke-linejoin:miter;stroke-opacity:1;marker-end:url(#Arrow1Lend-7-11)"
       d="M 208.57143,19.061613 132.85714,91.918756"
       id="path4835"
       inkscape:connector-curvature="0"
       transform="translate(-15.652288,-927.96307)" />
    <path
       style="fill:none;stroke:#000000;stroke-width:1px;stroke-linecap:butt;stroke-linejoin:miter;stroke-opacity:1;marker-end:url(#Arrow1Lend-7-11)"
       d="m 235.77628,-907.47288 75.71429,72.85714"
       id="path4835-3"
       inkscape:connector-curvature="0" />
    <path
       style="fill:none;stroke:#000000;stroke-width:1px;stroke-linecap:butt;stroke-linejoin:miter;stroke-opacity:1;marker-end:url(#Arrow1Lend-7-11-9)"
       d="M 223.57143,26.20447 197.85714,90.490184"
       id="path5061"
       inkscape:connector-curvature="0"
       transform="translate(-15.652288,-927.96307)" />
    <path
       style="fill:none;stroke:#000000;stroke-width:1px;stroke-linecap:butt;stroke-linejoin:miter;stroke-opacity:1;marker-end:url(#Arrow1Lend-7-11-9)"
       d="m 217.20485,-901.04432 25.71429,64.28571"
       id="path5061-3"
       inkscape:connector-curvature="0" />
  </g>
</svg>
